^C:\USERS\SHIBBY\SOURCE\REPOS\LCR\LCR\DEBUG\SOURCE.OBJ|C:\USERS\SHIBBY\SOURCE\REPOS\LCR\LCR\DEBUG\SOURCE1.OBJ|C:\USERS\SHIBBY\SOURCE\REPOS\LCR\LCR\DEBUG\SOURCE2.OBJ
/OUT:"C:\USERS\SHIBBY\SOURCE\REPOS\LCR\DEBUG\LCR.EXE" /INCREMENTAL /NOLOGO KERNEL32.LIB USER32.LIB GDI32.LIB WINSPOOL.LIB COMDLG32.LIB ADVAPI32.LIB SHELL32.LIB OLE32.LIB OLEAUT32.LIB UUID.LIB ODBC32.LIB ODBCCP32.LIB /MANIFEST /MANIFESTUAC:"level='asInvoker' uiAccess='false'" /manifest:embed /DEBUG:FASTLINK /PDB:"C:\USERS\SHIBBY\SOURCE\REPOS\LCR\DEBUG\LCR.PDB" /SUBSYSTEM:CONSOLE /TLBID:1 /DYNAMICBASE /NXCOMPAT /IMPLIB:"C:\USERS\SHIBBY\SOURCE\REPOS\LCR\DEBUG\LCR.LIB" /MACHINE:X86 DEBUG\SOURCE.OBJ
DEBUG\SOURCE1.OBJ
DEBUG\SOURCE2.OBJ
^C:\USERS\SHIBB\ONEDRIVE\DOCUMENTS\VISUAL STUDIO 2019\PROJECTS\LCR\LCR\DEBUG\SOURCE.OBJ|C:\USERS\SHIBB\ONEDRIVE\DOCUMENTS\VISUAL STUDIO 2019\PROJECTS\LCR\LCR\DEBUG\SOURCE1.OBJ|C:\USERS\SHIBB\ONEDRIVE\DOCUMENTS\VISUAL STUDIO 2019\PROJECTS\LCR\LCR\DEBUG\SOURCE2.OBJ
/OUT:"C:\USERS\SHIBB\ONEDRIVE\DOCUMENTS\VISUAL STUDIO 2019\PROJECTS\LCR\DEBUG\LCR.EXE" /INCREMENTAL /NOLOGO KERNEL32.LIB USER32.LIB GDI32.LIB WINSPOOL.LIB COMDLG32.LIB ADVAPI32.LIB SHELL32.LIB OLE32.LIB OLEAUT32.LIB UUID.LIB ODBC32.LIB ODBCCP32.LIB /MANIFEST /MANIFESTUAC:"level='asInvoker' uiAccess='false'" /manifest:embed /DEBUG:FASTLINK /PDB:"C:\USERS\SHIBB\ONEDRIVE\DOCUMENTS\VISUAL STUDIO 2019\PROJECTS\LCR\DEBUG\LCR.PDB" /SUBSYSTEM:CONSOLE /TLBID:1 /DYNAMICBASE /NXCOMPAT /IMPLIB:"C:\USERS\SHIBB\ONEDRIVE\DOCUMENTS\VISUAL STUDIO 2019\PROJECTS\LCR\DEBUG\LCR.LIB" /MACHINE:X86 DEBUG\SOURCE.OBJ
DEBUG\SOURCE1.OBJ
DEBUG\SOURCE2.OBJ
